\relax 
\babel@aux{english}{}
\@writefile{lof}{\contentsline {figure}{\numberline {1}{\ignorespaces fsync}}{1}\protected@file@percent }
\@writefile{lof}{\contentsline {figure}{\numberline {2}{\ignorespaces fsync zoom}}{2}\protected@file@percent }
\@writefile{lof}{\contentsline {figure}{\numberline {3}{\ignorespaces optimiert}}{2}\protected@file@percent }
\@writefile{lof}{\contentsline {figure}{\numberline {4}{\ignorespaces optimiert zoom}}{3}\protected@file@percent }
\@writefile{lof}{\contentsline {figure}{\numberline {5}{\ignorespaces checkpoint messung}}{3}\protected@file@percent }
\@writefile{lof}{\contentsline {figure}{\numberline {6}{\ignorespaces fsync messung}}{4}\protected@file@percent }
\@writefile{lof}{\contentsline {figure}{\numberline {7}{\ignorespaces optimiert messung}}{4}\protected@file@percent }
