@startuml

class BogoFS {
    inodes: INode[]
    free_blocks: BitVector
    block_mutexes: std::shared_mutex []
    data: char[]
    int[] getFreeBlocks(int)
    getINodeAt()
    getINodeRoot()
}

class INode {
    is_file: Boolean
    next : INodePointer
    name: char[]
    m_time 
    c_time
    size: size_t
    permissions
    direct_data: DataBlockPointer [12]
    indirect_data: DataBlockPointerContainer [256]
    doubly_indirect_data: array<DataBlockPointerContainer [256]> [256]
    INodePointer getNext()
    setNext()
    deleteNext()
    getDataBlocks()
    lockBlock(int)
    unlockBlock(int)
}

class INodePointer {
    index: int
}

class DataBlockPointer {
    block_index: int
}

class DataBlockPointerContainer{
    blocks: DataBlockPointer[]
}

BogoFS "1" o-- "many" INode : contains >
INode "1" o-- "1" INodePointer : contains >
INode "1" o-- "12" DataBlockPointer : contains >
INode "1" o-- "65536" DataBlockPointerContainer : contains >
DataBlockPointer "1" --o "12" DataBlockPointerContainer : contains <

@enduml
