\relax 
\babel@aux{english}{}
\@writefile{lof}{\contentsline {figure}{\numberline {1}{\ignorespaces Kurze Uebersicht ueber unsere Inode Struktur}}{3}\protected@file@percent }
\@writefile{lof}{\contentsline {figure}{\numberline {2}{\ignorespaces Eine \IeC {\"U}bersicht der Belegung des Speichers vom Dateisystem.}}{4}\protected@file@percent }
\@writefile{lof}{\contentsline {figure}{\numberline {3}{\ignorespaces Eine \IeC {\"U}bersicht wie die Inodes die Ordnerstruktur repr\IeC {\"a}sentieren.}}{4}\protected@file@percent }
