\relax 
\select@language{english}
\@writefile{toc}{\select@language{english}}
\@writefile{lof}{\select@language{english}}
\@writefile{lot}{\select@language{english}}
\@writefile{lof}{\contentsline {figure}{\numberline {1}{\ignorespaces Kurze Uebersicht ueber unsere Inode Struktur}}{2}}
\newlabel{klassen}{{1}{2}}
\@writefile{lof}{\contentsline {figure}{\numberline {2}{\ignorespaces Eine \IeC {\"U}bersicht der Belegung des Speichers vom Dateisystem.}}{3}}
\newlabel{aufteilungDateisystem}{{2}{3}}
\@writefile{lof}{\contentsline {figure}{\numberline {3}{\ignorespaces Eine \IeC {\"U}bersicht wie die Inodes die Ordnerstruktur repr\IeC {\"a}sentieren.}}{3}}
\newlabel{inodeStruktur}{{3}{3}}
